{
  "images" : [
    {
      "filename" : "photo_2021-11-22 10.58.03.jpeg",
      "idiom" : "universal",
      "scale" : "1x"
    },
    {
      "filename" : "photo_2021-11-22 10.58.03-1.jpeg",
      "idiom" : "universal",
      "scale" : "2x"
    },
    {
      "filename" : "photo_2021-11-22 10.58.03-2.jpeg",
      "idiom" : "universal",
      "scale" : "3x"
    }
  ],
  "info" : {
    "author" : "xcode",
    "version" : 1
  }
}
