<?xml version="1.0" encoding="utf-8"?>
<!-- Generator: Adobe Illustrator 24.0.1, SVG Export Plug-In . SVG Version: 6.00 Build 0)  -->
<svg version="1.1" id="Layer_1" xmlns="http://www.w3.org/2000/svg" xmlns:xlink="http://www.w3.org/1999/xlink" x="0px" y="0px"
	 viewBox="0 0 32 32" style="enable-background:new 0 0 32 32;" xml:space="preserve">
<style type="text/css">
	.st0{fill:#738694;}
</style>
<g>
	<circle class="st0" cx="22.3" cy="11.7" r="4.1"/>
</g>
<g>
	<path class="st0" d="M15.7,29c-2.2,0-4-1.8-4-4h2c0,1.1,0.9,2,2,2c1.1,0,2-0.9,2-2h2C19.7,27.2,17.9,29,15.7,29z"/>
</g>
<path class="st0" d="M24.2,19.4c-0.3-0.2-0.5-0.6-0.5-1c0-0.7,0-1.5,0-2.3c-0.4,0.1-0.9,0.2-1.3,0.2c-0.2,0-0.4,0-0.6-0.1
	c0,0.7,0,1.4,0,2.1c0,1,0.4,1.9,1.2,2.5c0.7,0.6,1,1.1,1.1,1.9H7.5c0.1-0.8,0.4-1.4,1.1-1.9c0.7-0.6,1.2-1.5,1.2-2.5
	c0-6.6,0.4-10.6,5.9-11.1c0,0,0.1,0,0.1,0c1.5,0.1,2.6,0.5,3.4,1.1c0.5-0.5,1.1-0.8,1.8-1c-1-1-2.4-1.7-4.3-2c0,0,0-0.1,0-0.1V5
	c0-0.5-0.4-1-1-1s-1,0.4-1,1v0.3c0,0,0,0.1,0,0.1c-7,1-7,7.6-7,12.9c0,0.4-0.2,0.8-0.5,1c-1.4,1.2-1.9,2.5-1.8,4.5l0.1,0.9h20.3
	l0.1-0.9C26.1,21.9,25.6,20.5,24.2,19.4z"/>
</svg>
