<?xml version="1.0" encoding="utf-8"?>
<!-- Generator: Adobe Illustrator 24.0.1, SVG Export Plug-In . SVG Version: 6.00 Build 0)  -->
<svg version="1.1" id="Layer_1" xmlns="http://www.w3.org/2000/svg" xmlns:xlink="http://www.w3.org/1999/xlink" x="0px" y="0px"
	 viewBox="0 0 32 32" style="enable-background:new 0 0 32 32;" xml:space="preserve">
<style type="text/css">
	.st0{fill:#B90A33;}
	.st1{fill:#7B858A;}
</style>
<g>
	<circle class="st0" cx="22.1" cy="11.4" r="4.4"/>
</g>
<g>
	<path class="st1" d="M14.9,28.3c-1.3,0-2.4-1.1-2.4-2.4h-1.6c0,2.2,1.8,4.1,4.1,4.1c2.2,0,4.1-1.8,4.1-4.1h-1.6
		C17.4,27.2,16.3,28.3,14.9,28.3z"/>
	<path class="st1" d="M24,19.9c-0.4-0.3-0.6-0.8-0.6-1.3c0-0.8,0-1.6,0-2.4c-0.4,0.1-0.8,0.2-1.2,0.2c-0.1,0-0.3,0-0.4,0
		c0,0.7,0,1.5,0,2.3c0,1,0.4,1.9,1.2,2.5c0.9,0.7,1.2,1.5,1.3,2.6H5.7c0-1.1,0.4-1.9,1.3-2.6c0.7-0.6,1.2-1.5,1.2-2.5
		c0-7.1,0.5-11.8,6.7-12.3c0,0,0.1,0,0.2,0c1.7,0.1,3,0.6,3.9,1.3c0.4-0.4,1-0.7,1.5-0.9c-1.1-1-2.6-1.7-4.7-2v-1
		c0-0.5-0.4-0.8-0.8-0.8s-0.8,0.4-0.8,0.8v1c-7.6,1-7.6,7.8-7.6,13.9c0,0.5-0.2,1-0.6,1.3c-1.5,1.2-2,2.6-1.8,4.7l0.1,0.8h21.6
		l0.1-0.8C26,22.5,25.4,21.1,24,19.9z"/>
</g>
</svg>
