<svg width="23" height="16" viewBox="0 0 23 16" fill="none" xmlns="http://www.w3.org/2000/svg">
<path fill-rule="evenodd" clip-rule="evenodd" d="M8 0H21C22.1046 0 23 0.89543 23 2V14C23 15.1046 22.1046 16 21 16H8C7.49479 16 7.26688 15.8135 6.80345 15.3177C6.75712 15.2681 6.70992 15.216 6.66192 15.1616C6.47807 14.9533 6.31421 14.7494 6.23177 14.6402L0.698288 8L1.23177 7.35982L6.18177 1.42511C6.28585 1.27697 6.44363 1.0672 6.62702 0.851777C6.70024 0.765768 6.77252 0.685229 6.84401 0.610795C7.22963 0.209291 7.51572 0 8 0ZM8.14992 2.14822C8.01408 2.3078 7.8898 2.47303 7.76822 2.64018L3.30164 8.00007L7.79436 13.3926C7.87696 13.5006 8.01457 13.6717 8.1616 13.8384C8.19746 13.879 8.23193 13.9171 8.26461 13.952C8.28044 13.969 8.29568 13.985 8.3102 14H21V2H8.28281C8.24198 2.0427 8.19723 2.09265 8.14992 2.14822ZM16.2929 4.29289L14 6.58579L11.7071 4.29289L10.2929 5.70711L12.5858 8L10.2929 10.2929L11.7071 11.7071L14 9.41421L16.2929 11.7071L17.7071 10.2929L15.4142 8L17.7071 5.70711L16.2929 4.29289Z" fill="white"/>
</svg>
